<svg width="34" height="34" viewBox="0 0 34 34" fill="none" xmlns="http://www.w3.org/2000/svg">
<g id="icon/action/flight_takeoff_24px">
<path id="icon/action/flight_takeoff_24px_2" fill-rule="evenodd" clip-rule="evenodd" d="M28.6873 11.7513C29.8206 11.4396 30.9964 12.1196 31.2939 13.253C31.5914 14.3863 30.9256 15.548 29.7781 15.8738L6.30393 22.1496L5.2131 20.2655L2.63477 15.7888L4.68893 15.2363L7.47977 17.418L14.5206 15.5338L8.6556 5.37631L11.3898 4.65381L21.1648 13.763L28.6873 11.7513ZM30.4865 26.513H3.56983V29.3463H30.4865V26.513Z" fill="#ED6E23"/>
</g>
</svg>
